<svg xmlns="http://www.w3.org/2000/svg" xmlns:xlink="http://www.w3.org/1999/xlink" width="35.949" height="35.949" viewBox="0 0 35.949 35.949">
  <defs>
    <filter id="Path_565" x="0" y="0" width="21" height="21" filterUnits="userSpaceOnUse">
      <feOffset dy="3" input="SourceAlpha"/>
      <feGaussianBlur stdDeviation="2.5" result="blur"/>
      <feFlood flood-color="#80ba27"/>
      <feComposite operator="in" in2="blur"/>
      <feComposite in="SourceGraphic"/>
    </filter>
    <filter id="Path_567" x="14.949" y="0" width="21" height="21" filterUnits="userSpaceOnUse">
      <feOffset dy="3" input="SourceAlpha"/>
      <feGaussianBlur stdDeviation="2.5" result="blur-2"/>
      <feFlood flood-color="#80ba27"/>
      <feComposite operator="in" in2="blur-2"/>
      <feComposite in="SourceGraphic"/>
    </filter>
    <filter id="Path_569" x="0" y="14.949" width="21" height="21" filterUnits="userSpaceOnUse">
      <feOffset dy="3" input="SourceAlpha"/>
      <feGaussianBlur stdDeviation="2.5" result="blur-3"/>
      <feFlood flood-color="#80ba27"/>
      <feComposite operator="in" in2="blur-3"/>
      <feComposite in="SourceGraphic"/>
    </filter>
    <filter id="Path_571" x="14.949" y="14.949" width="21" height="21" filterUnits="userSpaceOnUse">
      <feOffset dy="3" input="SourceAlpha"/>
      <feGaussianBlur stdDeviation="2.5" result="blur-4"/>
      <feFlood flood-color="#80ba27"/>
      <feComposite operator="in" in2="blur-4"/>
      <feComposite in="SourceGraphic"/>
    </filter>
  </defs>
  <g id="ic_face_ID" data-name="ic/face ID" transform="translate(7.5 86.5)">
    <g transform="matrix(1, 0, 0, 1, -7.5, -86.5)" filter="url(#Path_565)">
      <path id="Path_565-2" data-name="Path 565" d="M1.029-76.514v-2.229a2.194,2.194,0,0,1,2.229-2.229H5.486A.514.514,0,0,0,6-81.486.514.514,0,0,0,5.486-82H3.257A3.222,3.222,0,0,0,0-78.743v2.229A.514.514,0,0,0,.514-76,.514.514,0,0,0,1.029-76.514Z" transform="translate(7.5 86.5)" fill="#80ba27"/>
    </g>
    <g transform="matrix(1, 0, 0, 1, -7.5, -86.5)" filter="url(#Path_567)">
      <path id="Path_567-2" data-name="Path 567" d="M61.971-76.514v-2.229a2.194,2.194,0,0,0-2.229-2.229H57.514A.514.514,0,0,1,57-81.486.514.514,0,0,1,57.514-82h2.229A3.222,3.222,0,0,1,63-78.743v2.229a.514.514,0,0,1-.514.514A.514.514,0,0,1,61.971-76.514Z" transform="translate(-34.55 86.5)" fill="#80ba27"/>
    </g>
    <g transform="matrix(1, 0, 0, 1, -7.5, -86.5)" filter="url(#Path_569)">
      <path id="Path_569-2" data-name="Path 569" d="M1.029-24.486v2.229a2.194,2.194,0,0,0,2.229,2.229H5.486A.514.514,0,0,1,6-19.514.514.514,0,0,1,5.486-19H3.257A3.222,3.222,0,0,1,0-22.257v-2.229A.514.514,0,0,1,.514-25,.514.514,0,0,1,1.029-24.486Z" transform="translate(7.5 44.45)" fill="#80ba27"/>
    </g>
    <g transform="matrix(1, 0, 0, 1, -7.5, -86.5)" filter="url(#Path_571)">
      <path id="Path_571-2" data-name="Path 571" d="M61.971-24.486v2.229a2.194,2.194,0,0,1-2.229,2.229H57.514a.514.514,0,0,0-.514.514.514.514,0,0,0,.514.514h2.229A3.222,3.222,0,0,0,63-22.257v-2.229A.514.514,0,0,0,62.486-25,.514.514,0,0,0,61.971-24.486Z" transform="translate(-34.55 44.45)" fill="#80ba27"/>
    </g>
    <path id="Path_587" data-name="Path 587" d="M3.3,0H16.777c2.209,0,2.3,1.893,2.3,4.1V15.083c0,2.209-.088,3.83-2.3,3.83H3.926c-2.209,0-3.783-.285-3.783-2.494V2.953C.142.744,1.091,0,3.3,0Z" transform="translate(0.858 -81)" fill="#fff" opacity="0.5"/>
    <path id="Path_573" data-name="Path 573" d="M25.829-25.483a5.275,5.275,0,0,0,3.717,1.448,5.275,5.275,0,0,0,3.717-1.448.556.556,0,0,0,.027-.786A.556.556,0,0,0,32.5-26.3a4.164,4.164,0,0,1-2.958,1.148A4.164,4.164,0,0,1,26.588-26.3a.556.556,0,0,0-.786.027A.556.556,0,0,0,25.829-25.483Z" transform="translate(-19.067 -40.985)" fill="#00513a"/>
    <path id="Path_561" data-name="Path 561" d="M22.118-53.463v1.484a.556.556,0,0,0,.556.556.556.556,0,0,0,.556-.556v-1.484a.556.556,0,0,0-.556-.556A.556.556,0,0,0,22.118-53.463Z" transform="translate(-16.459 -20.642)" fill="#00513a"/>
    <path id="Path_563" data-name="Path 563" d="M55.347-53.463v1.484a.556.556,0,0,0,.556.556.556.556,0,0,0,.556-.556v-1.484a.556.556,0,0,0-.556-.556A.556.556,0,0,0,55.347-53.463Z" transform="translate(-40.974 -20.642)" fill="#00513a"/>
    <path id="Path_575" data-name="Path 575" d="M36.849-53.463v3.894a.327.327,0,0,1-.372.371h-.369a.556.556,0,0,0-.556.556.556.556,0,0,0,.556.556h.369a1.431,1.431,0,0,0,1.485-1.483v-3.894a.556.556,0,0,0-.556-.556A.556.556,0,0,0,36.849-53.463Z" transform="translate(-26.37 -20.642)" fill="#00513a"/>
  </g>
</svg>
