<svg xmlns="http://www.w3.org/2000/svg" width="10.36" height="18.993" viewBox="0 0 10.36 18.993">
  <path id="ic_arrow" data-name="ic/arrow" d="M.234,18.759a.791.791,0,0,1,0-1.124L8.43,9.5l-8.2-8.14a.791.791,0,0,1,0-1.124.8.8,0,0,1,1.13,0l8.761,8.7a.787.787,0,0,1,0,1.12l-8.761,8.7a.8.8,0,0,1-1.13,0Z" fill="#80ba27"/>
</svg>
