<svg xmlns="http://www.w3.org/2000/svg" xmlns:xlink="http://www.w3.org/1999/xlink" width="34" height="39" viewBox="0 0 34 39">
  <defs>
    <filter id="Path_293" x="0" y="0" width="34" height="39" filterUnits="userSpaceOnUse">
      <feOffset dy="3" input="SourceAlpha"/>
      <feGaussianBlur stdDeviation="2.5" result="blur"/>
      <feFlood flood-color="#00513a" flood-opacity="0.161"/>
      <feComposite operator="in" in2="blur"/>
      <feComposite in="SourceGraphic"/>
    </filter>
    <filter id="ic_done" x="5" y="7" width="25" height="24.412" filterUnits="userSpaceOnUse">
      <feOffset dy="3" input="SourceAlpha"/>
      <feGaussianBlur stdDeviation="2.5" result="blur-2"/>
      <feFlood flood-color="#80ba27" flood-opacity="0.161"/>
      <feComposite operator="in" in2="blur-2"/>
      <feComposite in="SourceGraphic"/>
    </filter>
  </defs>
  <g id="ic_insurance" data-name="ic/insurance" transform="translate(-43.5 -193.5)">
    <g transform="matrix(1, 0, 0, 1, 43.5, 193.5)" filter="url(#Path_293)">
      <g id="Path_293-2" data-name="Path 293" transform="translate(-1082.29 -185.08)" fill="#fff">
        <path d="M 1099.285278320312 213.0226135253906 C 1098.710083007812 212.5847625732422 1098.125732421875 212.1450653076172 1097.559448242188 211.7191009521484 C 1096.419555664062 210.8614959716797 1095.24072265625 209.9746856689453 1094.104858398438 209.0778961181641 C 1092.598388671875 207.8884582519531 1091.499633789062 206.3012847900391 1090.839233398438 204.3605041503906 C 1090.473754882812 203.2869262695312 1090.29150390625 202.1281280517578 1090.29736328125 200.9162139892578 C 1090.300903320312 200.1390380859375 1090.299926757812 199.3497161865234 1090.298950195312 198.5863647460938 C 1090.298583984375 198.2284851074219 1090.298095703125 197.87060546875 1090.298095703125 197.5126800537109 L 1090.298095703125 197.0126800537109 L 1090.297241210938 197.0126800537109 C 1090.29736328125 196.8364410400391 1090.297607421875 196.6602172851562 1090.297729492188 196.4839782714844 C 1090.298583984375 195.5249938964844 1090.299438476562 194.5350189208984 1090.293334960938 193.5574035644531 C 1093.614135742188 193.3542938232422 1096.375854492188 192.3959350585938 1098.731689453125 190.6298065185547 C 1098.9267578125 190.4834136962891 1099.112182617188 190.3278656005859 1099.287963867188 190.1754455566406 C 1100.658813476562 191.3552856445312 1102.253540039062 192.2214813232422 1104.159057617188 192.8230438232422 C 1105.410888671875 193.2183532714844 1106.672729492188 193.4541778564453 1107.909423828125 193.5239868164062 C 1108.002075195312 193.5291748046875 1108.095581054688 193.5376434326172 1108.194702148438 193.5466156005859 C 1108.224975585938 193.5493469238281 1108.255493164062 193.5521087646484 1108.286254882812 193.5547943115234 C 1108.286254882812 194.3430023193359 1108.28515625 195.1312561035156 1108.2841796875 195.9194946289062 L 1108.283325195312 196.5234069824219 C 1108.282470703125 197.0365753173828 1108.28515625 197.5577239990234 1108.287719726562 198.0617218017578 C 1108.293334960938 199.1549835205078 1108.299072265625 200.2854614257812 1108.269165039062 201.3924255371094 C 1108.205688476562 203.7308197021484 1107.386596679688 205.8706512451172 1105.834594726562 207.7524566650391 C 1105.098999023438 208.6441192626953 1104.1865234375 209.3275299072266 1103.220458984375 210.0510864257812 C 1103.116577148438 210.12890625 1103.0126953125 210.2067260742188 1102.908935546875 210.2848358154297 L 1102.494873046875 210.5966949462891 C 1101.441650390625 211.3898315429688 1100.353515625 212.2091979980469 1099.285278320312 213.0226135253906 Z" stroke="none"/>
        <path d="M 1099.290283203125 190.8273468017578 C 1099.206420898438 190.8955535888672 1099.120239257812 190.9633636474609 1099.031616210938 191.0298767089844 C 1096.707885742188 192.7719421386719 1094.008544921875 193.7537231445312 1090.795776367188 194.0223541259766 C 1090.799194335938 194.8480987548828 1090.798461914062 195.67724609375 1090.797729492188 196.4844360351562 C 1090.797729492188 196.4938507080078 1090.797729492188 196.5032653808594 1090.797729492188 196.5126800537109 L 1090.798095703125 196.5126800537109 L 1090.798095703125 197.5126800537109 C 1090.798095703125 197.8703918457031 1090.798583984375 198.2280883789062 1090.798950195312 198.5857543945312 C 1090.799926757812 199.3498077392578 1090.800903320312 200.1398773193359 1090.79736328125 200.9186401367188 C 1090.791625976562 202.0910797119141 1090.960205078125 203.1642150878906 1091.3125 204.1994018554688 C 1091.94140625 206.0474090576172 1092.985107421875 207.5567474365234 1094.414672851562 208.6854705810547 C 1095.546020507812 209.5786285400391 1096.722412109375 210.4636535644531 1097.860107421875 211.3195495605469 C 1098.32763671875 211.6713409423828 1098.8076171875 212.0324401855469 1099.285034179688 212.39453125 C 1100.256591796875 211.6563415527344 1101.239624023438 210.9160461425781 1102.194091796875 210.1972808837891 L 1102.608154296875 209.8854675292969 C 1102.712158203125 209.8070983886719 1102.816528320312 209.7289886474609 1102.920776367188 209.65087890625 C 1103.862182617188 208.9457855224609 1104.751342773438 208.27978515625 1105.448852539062 207.434326171875 C 1106.92822265625 205.6405487060547 1107.708984375 203.6031799316406 1107.769287109375 201.3788757324219 C 1107.799072265625 200.2799072265625 1107.793334960938 199.1534881591797 1107.787719726562 198.0641479492188 C 1107.78515625 197.5593566894531 1107.782470703125 197.0373840332031 1107.783325195312 196.5227813720703 L 1107.7841796875 195.9188079833984 C 1107.785034179688 195.2850494384766 1107.785888671875 194.6512908935547 1107.7861328125 194.0175170898438 C 1106.538452148438 193.9388732910156 1105.267944335938 193.6975708007812 1104.008544921875 193.2998504638672 C 1102.212890625 192.7329711914062 1100.628662109375 191.9023742675781 1099.290283203125 190.8273468017578 M 1099.288208007812 189.58251953125 C 1099.345336914062 189.5825347900391 1099.40283203125 189.6108093261719 1099.467895507812 189.6685333251953 C 1100.877807617188 190.9221496582031 1102.51416015625 191.7794189453125 1104.3095703125 192.3462524414062 C 1105.489501953125 192.7188415527344 1106.69873046875 192.9548492431641 1107.937622070312 193.0247802734375 C 1108.158447265625 193.0371704101562 1108.3779296875 193.0660247802734 1108.59814453125 193.0752410888672 C 1108.814086914062 193.0842437744141 1108.786254882812 193.2363128662109 1108.786254882812 193.3698120117188 C 1108.786499023438 194.4211120605469 1108.78466796875 195.4725646972656 1108.783325195312 196.5240478515625 C 1108.780639648438 198.1514282226562 1108.81298828125 199.7796173095703 1108.768920898438 201.4059753417969 C 1108.700927734375 203.9123687744141 1107.82080078125 206.1299896240234 1106.220336914062 208.0705871582031 C 1105.363403320312 209.1092529296875 1104.2744140625 209.8822479248047 1103.209838867188 210.6842041015625 C 1101.968627929688 211.6190490722656 1100.726684570312 212.5529022216797 1099.490844726562 213.4945373535156 C 1099.414184570312 213.5530700683594 1099.349487304688 213.58251953125 1099.284912109375 213.58251953125 C 1099.22119140625 213.58251953125 1099.157348632812 213.5539245605469 1099.08203125 213.4963531494141 C 1097.320434570312 212.1533203125 1095.533081054688 210.842529296875 1093.795043945312 209.4703369140625 C 1092.153198242188 208.1739959716797 1091.036743164062 206.4929962158203 1090.365844726562 204.5215759277344 C 1089.967407226562 203.3509674072266 1089.791381835938 202.1472320556641 1089.79736328125 200.9137878417969 C 1089.802490234375 199.7801818847656 1089.798095703125 198.6465454101562 1089.798095703125 197.5126800537109 L 1089.797119140625 197.5126800537109 C 1089.797119140625 196.1412048339844 1089.802001953125 194.7697143554688 1089.792236328125 193.3984527587891 C 1089.790283203125 193.1503601074219 1089.865234375 193.0804443359375 1090.11962890625 193.0665893554688 C 1093.160278320312 192.9017181396484 1095.973876953125 192.0723876953125 1098.431762695312 190.2297515869141 C 1098.66650390625 190.0535888671875 1098.889770507812 189.8604125976562 1099.110229492188 189.6667327880859 C 1099.173950195312 189.6109771728516 1099.230834960938 189.58251953125 1099.288208007812 189.58251953125 Z" stroke="none" fill="#00513a"/>
      </g>
    </g>
    <g transform="matrix(1, 0, 0, 1, 43.5, 193.5)" filter="url(#ic_done)">
      <path id="ic_done-2" data-name="ic/done" d="M957.21,305.412a.621.621,0,0,1-.426-.169l-2.593-2.445a.607.607,0,0,1-.021-.864.622.622,0,0,1,.873-.021l2.088,1.969,5.757-7.637a.621.621,0,0,1,.864-.124.607.607,0,0,1,.126.855l-6.173,8.189a.619.619,0,0,1-.443.243Z" transform="translate(-941.5 -284.5)" fill="#80ba27"/>
    </g>
  </g>
</svg>
